EESchema Schematic File Version 4
EELAYER 30 0
EELAYER END
$Descr A4 11693 8268
encoding utf-8
Sheet 1 1
Title ""
Date ""
Rev ""
Comp ""
Comment1 ""
Comment2 ""
Comment3 ""
Comment4 ""
$EndDescr
$Comp
L RF_Module:ESP32-PICO-D4 U?
U 1 1 5EBB6584
P 5800 2350
F 0 "U?" H 5800 661 50  0000 C CNN
F 1 "ESP32-PICO-D4" H 5800 570 50  0000 C CNN
F 2 "Package_DFN_QFN:QFN-48-1EP_7x7mm_P0.5mm_EP5.3x5.3mm" H 5800 650 50  0001 C CNN
F 3 "https://www.espressif.com/sites/default/files/documentation/esp32-pico-d4_datasheet_en.pdf" H 6050 1350 50  0001 C CNN
	1    5800 2350
	1    0    0    -1  
$EndComp
$Comp
L Connector_Generic:Conn_01x03 J?
U 1 1 5EBBACC4
P 9150 1650
F 0 "J?" H 9230 1692 50  0000 L CNN
F 1 "LowerLegServo" H 9230 1601 50  0000 L CNN
F 2 "" H 9150 1650 50  0001 C CNN
F 3 "~" H 9150 1650 50  0001 C CNN
	1    9150 1650
	1    0    0    -1  
$EndComp
$Comp
L Connector_Generic:Conn_01x03 J?
U 1 1 5EBBB38B
P 9150 2300
F 0 "J?" H 9230 2342 50  0000 L CNN
F 1 "UpperLegServo" H 9230 2251 50  0000 L CNN
F 2 "" H 9150 2300 50  0001 C CNN
F 3 "~" H 9150 2300 50  0001 C CNN
	1    9150 2300
	1    0    0    -1  
$EndComp
$Comp
L Connector_Generic:Conn_01x03 J?
U 1 1 5EBBB677
P 9150 1100
F 0 "J?" H 9230 1142 50  0000 L CNN
F 1 "LegSelectServo" H 9230 1051 50  0000 L CNN
F 2 "" H 9150 1100 50  0001 C CNN
F 3 "~" H 9150 1100 50  0001 C CNN
	1    9150 1100
	1    0    0    -1  
$EndComp
$Comp
L Connector_Generic:Conn_01x03 J?
U 1 1 5EBBBB95
P 9150 2900
F 0 "J?" H 9230 2942 50  0000 L CNN
F 1 "TurretPanServo" H 9230 2851 50  0000 L CNN
F 2 "" H 9150 2900 50  0001 C CNN
F 3 "~" H 9150 2900 50  0001 C CNN
	1    9150 2900
	1    0    0    -1  
$EndComp
$Comp
L Connector_Generic:Conn_01x03 J?
U 1 1 5EBBC2D4
P 10500 4600
F 0 "J?" H 10580 4642 50  0000 L CNN
F 1 "DynamixelBus" H 10580 4551 50  0000 L CNN
F 2 "" H 10500 4600 50  0001 C CNN
F 3 "~" H 10500 4600 50  0001 C CNN
	1    10500 4600
	1    0    0    -1  
$EndComp
$Comp
L Connector_Generic:Conn_01x03 PowerInput
U 1 1 5EBBDB4A
P 1150 4200
F 0 "PowerInput" V 1114 4012 50  0000 R CNN
F 1 "Conn_01x03" V 1023 4012 50  0000 R CNN
F 2 "" H 1150 4200 50  0001 C CNN
F 3 "~" H 1150 4200 50  0001 C CNN
	1    1150 4200
	0    -1   -1   0   
$EndComp
$Comp
L power:+BATT #PWR?
U 1 1 5EBBE3B4
P 800 4600
F 0 "#PWR?" H 800 4450 50  0001 C CNN
F 1 "+BATT" H 815 4773 50  0000 C CNN
F 2 "" H 800 4600 50  0001 C CNN
F 3 "" H 800 4600 50  0001 C CNN
	1    800  4600
	1    0    0    -1  
$EndComp
Wire Wire Line
	800  4600 1050 4600
Wire Wire Line
	1050 4600 1050 4400
$Comp
L power:GND #PWR?
U 1 1 5EBBEDD7
P 1600 4600
F 0 "#PWR?" H 1600 4350 50  0001 C CNN
F 1 "GND" H 1605 4427 50  0000 C CNN
F 2 "" H 1600 4600 50  0001 C CNN
F 3 "" H 1600 4600 50  0001 C CNN
	1    1600 4600
	1    0    0    -1  
$EndComp
Wire Wire Line
	1600 4600 1250 4600
Wire Wire Line
	1250 4600 1250 4400
$Comp
L power:+3V8 #PWR?
U 1 1 5EBBF85A
P 1150 4750
F 0 "#PWR?" H 1150 4600 50  0001 C CNN
F 1 "+3V8" H 1165 4923 50  0000 C CNN
F 2 "" H 1150 4750 50  0001 C CNN
F 3 "" H 1150 4750 50  0001 C CNN
	1    1150 4750
	-1   0    0    1   
$EndComp
Wire Wire Line
	1150 4750 1150 4400
$Comp
L power:+6V #PWR?
U 1 1 5EBC071B
P 8650 1650
F 0 "#PWR?" H 8650 1500 50  0001 C CNN
F 1 "+6V" H 8665 1823 50  0000 C CNN
F 2 "" H 8650 1650 50  0001 C CNN
F 3 "" H 8650 1650 50  0001 C CNN
	1    8650 1650
	1    0    0    -1  
$EndComp
$Comp
L power:+6V #PWR?
U 1 1 5EBC11FF
P 8650 2300
F 0 "#PWR?" H 8650 2150 50  0001 C CNN
F 1 "+6V" H 8665 2473 50  0000 C CNN
F 2 "" H 8650 2300 50  0001 C CNN
F 3 "" H 8650 2300 50  0001 C CNN
	1    8650 2300
	1    0    0    -1  
$EndComp
$Comp
L power:+6V #PWR?
U 1 1 5EBC158F
P 8650 1100
F 0 "#PWR?" H 8650 950 50  0001 C CNN
F 1 "+6V" H 8665 1273 50  0000 C CNN
F 2 "" H 8650 1100 50  0001 C CNN
F 3 "" H 8650 1100 50  0001 C CNN
	1    8650 1100
	1    0    0    -1  
$EndComp
$Comp
L power:+6V #PWR?
U 1 1 5EBC1A21
P 8650 2900
F 0 "#PWR?" H 8650 2750 50  0001 C CNN
F 1 "+6V" H 8665 3073 50  0000 C CNN
F 2 "" H 8650 2900 50  0001 C CNN
F 3 "" H 8650 2900 50  0001 C CNN
	1    8650 2900
	1    0    0    -1  
$EndComp
$Comp
L power:GND #PWR?
U 1 1 5EBC1CA5
P 8650 1750
F 0 "#PWR?" H 8650 1500 50  0001 C CNN
F 1 "GND" H 8655 1577 50  0000 C CNN
F 2 "" H 8650 1750 50  0001 C CNN
F 3 "" H 8650 1750 50  0001 C CNN
	1    8650 1750
	1    0    0    -1  
$EndComp
$Comp
L power:GND #PWR?
U 1 1 5EBC2170
P 8650 2400
F 0 "#PWR?" H 8650 2150 50  0001 C CNN
F 1 "GND" H 8655 2227 50  0000 C CNN
F 2 "" H 8650 2400 50  0001 C CNN
F 3 "" H 8650 2400 50  0001 C CNN
	1    8650 2400
	1    0    0    -1  
$EndComp
$Comp
L power:GND #PWR?
U 1 1 5EBC245D
P 8650 1200
F 0 "#PWR?" H 8650 950 50  0001 C CNN
F 1 "GND" H 8655 1027 50  0000 C CNN
F 2 "" H 8650 1200 50  0001 C CNN
F 3 "" H 8650 1200 50  0001 C CNN
	1    8650 1200
	1    0    0    -1  
$EndComp
$Comp
L power:GND #PWR?
U 1 1 5EBC27B4
P 8650 3000
F 0 "#PWR?" H 8650 2750 50  0001 C CNN
F 1 "GND" H 8655 2827 50  0000 C CNN
F 2 "" H 8650 3000 50  0001 C CNN
F 3 "" H 8650 3000 50  0001 C CNN
	1    8650 3000
	1    0    0    -1  
$EndComp
Wire Wire Line
	8650 1750 8950 1750
Wire Wire Line
	8650 1650 8950 1650
Wire Wire Line
	8650 2300 8950 2300
Wire Wire Line
	8950 2400 8650 2400
Wire Wire Line
	8650 1100 8950 1100
Wire Wire Line
	8950 1200 8650 1200
Wire Wire Line
	8650 2900 8950 2900
Wire Wire Line
	8650 3000 8950 3000
Wire Wire Line
	6600 1350 7600 1350
Wire Wire Line
	7600 1350 7600 1000
Wire Wire Line
	7600 1000 8950 1000
Wire Wire Line
	8950 2200 7600 2200
Wire Wire Line
	7600 2050 6600 2050
Wire Wire Line
	8950 2800 7500 2800
Wire Wire Line
	7500 2250 6600 2250
$Comp
L Converter_DCDC:ITX0505SA-H PS?
U 1 1 5EBDC9E6
P 2950 5650
F 0 "PS?" H 2950 6017 50  0000 C CNN
F 1 "ITX0505SA-H" H 2950 5926 50  0000 C CNN
F 2 "Converter_DCDC:Converter_DCDC_XP_POWER-ITXxxxxSA_THT" H 1900 5400 50  0001 L CNN
F 3 "https://www.xppower.com/pdfs/SF_ITX.pdf" H 4000 5350 50  0001 L CNN
	1    2950 5650
	1    0    0    -1  
$EndComp
$Comp
L Converter_DCDC:ITX0505SA-H PS?
U 1 1 5EBDDC2F
P 2950 6600
F 0 "PS?" H 2950 6967 50  0000 C CNN
F 1 "ITX0505SA-H" H 2950 6876 50  0000 C CNN
F 2 "Converter_DCDC:Converter_DCDC_XP_POWER-ITXxxxxSA_THT" H 1900 6350 50  0001 L CNN
F 3 "https://www.xppower.com/pdfs/SF_ITX.pdf" H 4000 6300 50  0001 L CNN
	1    2950 6600
	1    0    0    -1  
$EndComp
Text Notes 2100 5150 0    50   ~ 0
These aren't the actual converters, they're just \nconvenient schematic symbols
$Comp
L power:GND #PWR?
U 1 1 5EBDF907
P 2150 5750
F 0 "#PWR?" H 2150 5500 50  0001 C CNN
F 1 "GND" H 2155 5577 50  0000 C CNN
F 2 "" H 2150 5750 50  0001 C CNN
F 3 "" H 2150 5750 50  0001 C CNN
	1    2150 5750
	1    0    0    -1  
$EndComp
$Comp
L power:GND #PWR?
U 1 1 5EBDFDCD
P 3750 5750
F 0 "#PWR?" H 3750 5500 50  0001 C CNN
F 1 "GND" H 3755 5577 50  0000 C CNN
F 2 "" H 3750 5750 50  0001 C CNN
F 3 "" H 3750 5750 50  0001 C CNN
	1    3750 5750
	1    0    0    -1  
$EndComp
$Comp
L power:GND #PWR?
U 1 1 5EBE013A
P 4250 6750
F 0 "#PWR?" H 4250 6500 50  0001 C CNN
F 1 "GND" H 4255 6577 50  0000 C CNN
F 2 "" H 4250 6750 50  0001 C CNN
F 3 "" H 4250 6750 50  0001 C CNN
	1    4250 6750
	1    0    0    -1  
$EndComp
$Comp
L power:GND #PWR?
U 1 1 5EBE0576
P 2150 6700
F 0 "#PWR?" H 2150 6450 50  0001 C CNN
F 1 "GND" H 2155 6527 50  0000 C CNN
F 2 "" H 2150 6700 50  0001 C CNN
F 3 "" H 2150 6700 50  0001 C CNN
	1    2150 6700
	1    0    0    -1  
$EndComp
$Comp
L power:+BATT #PWR?
U 1 1 5EBE0A7D
P 800 6100
F 0 "#PWR?" H 800 5950 50  0001 C CNN
F 1 "+BATT" H 815 6273 50  0000 C CNN
F 2 "" H 800 6100 50  0001 C CNN
F 3 "" H 800 6100 50  0001 C CNN
	1    800  6100
	1    0    0    -1  
$EndComp
Wire Wire Line
	2150 6700 2550 6700
Wire Wire Line
	3750 5750 3350 5750
Wire Wire Line
	2550 5750 2150 5750
$Comp
L power:+6V #PWR?
U 1 1 5EBE8E59
P 3750 5550
F 0 "#PWR?" H 3750 5400 50  0001 C CNN
F 1 "+6V" H 3765 5723 50  0000 C CNN
F 2 "" H 3750 5550 50  0001 C CNN
F 3 "" H 3750 5550 50  0001 C CNN
	1    3750 5550
	1    0    0    -1  
$EndComp
Wire Wire Line
	3750 5550 3350 5550
$Comp
L power:+5V #PWR?
U 1 1 5EBEA47E
P 4250 6450
F 0 "#PWR?" H 4250 6300 50  0001 C CNN
F 1 "+5V" H 4265 6623 50  0000 C CNN
F 2 "" H 4250 6450 50  0001 C CNN
F 3 "" H 4250 6450 50  0001 C CNN
	1    4250 6450
	1    0    0    -1  
$EndComp
$Comp
L power:+5V #PWR?
U 1 1 5EBEB6A6
P 5600 1500
F 0 "#PWR?" H 5600 1350 50  0001 C CNN
F 1 "+5V" H 5615 1673 50  0000 C CNN
F 2 "" H 5600 1500 50  0001 C CNN
F 3 "" H 5600 1500 50  0001 C CNN
	1    5600 1500
	1    0    0    -1  
$EndComp
Wire Wire Line
	5600 1500 5600 750 
$Comp
L power:GND #PWR?
U 1 1 5EBECB44
P 5800 4500
F 0 "#PWR?" H 5800 4250 50  0001 C CNN
F 1 "GND" H 5805 4327 50  0000 C CNN
F 2 "" H 5800 4500 50  0001 C CNN
F 3 "" H 5800 4500 50  0001 C CNN
	1    5800 4500
	1    0    0    -1  
$EndComp
Wire Wire Line
	5800 4500 5800 3950
$Comp
L pspice:DIODE D?
U 1 1 5EBFADF8
P 1550 6500
F 0 "D?" H 1550 6765 50  0000 C CNN
F 1 "1n4007" H 1550 6674 50  0000 C CNN
F 2 "" H 1550 6500 50  0001 C CNN
F 3 "~" H 1550 6500 50  0001 C CNN
	1    1550 6500
	1    0    0    -1  
$EndComp
Wire Wire Line
	800  6100 1000 6100
Wire Wire Line
	1750 5550 2550 5550
Wire Wire Line
	1750 6500 2550 6500
$Comp
L power:VBUS #PWR?
U 1 1 5EC0C38B
P 1750 5550
F 0 "#PWR?" H 1750 5400 50  0001 C CNN
F 1 "VBUS" H 1765 5723 50  0000 C CNN
F 2 "" H 1750 5550 50  0001 C CNN
F 3 "" H 1750 5550 50  0001 C CNN
	1    1750 5550
	-1   0    0    1   
$EndComp
$Comp
L power:VBUS #PWR?
U 1 1 5EC0DAC9
P 9750 4600
F 0 "#PWR?" H 9750 4450 50  0001 C CNN
F 1 "VBUS" H 9765 4773 50  0000 C CNN
F 2 "" H 9750 4600 50  0001 C CNN
F 3 "" H 9750 4600 50  0001 C CNN
	1    9750 4600
	-1   0    0    1   
$EndComp
Wire Wire Line
	9750 4600 10300 4600
$Comp
L power:GND #PWR?
U 1 1 5EC0EE82
P 10100 4700
F 0 "#PWR?" H 10100 4450 50  0001 C CNN
F 1 "GND" H 10105 4527 50  0000 C CNN
F 2 "" H 10100 4700 50  0001 C CNN
F 3 "" H 10100 4700 50  0001 C CNN
	1    10100 4700
	1    0    0    -1  
$EndComp
Wire Wire Line
	10100 4700 10300 4700
$Comp
L Device:C C?
U 1 1 5EC173A9
P 4000 6600
F 0 "C?" H 4115 6646 50  0000 L CNN
F 1 "4.7uF" H 4115 6555 50  0000 L CNN
F 2 "" H 4038 6450 50  0001 C CNN
F 3 "~" H 4000 6600 50  0001 C CNN
	1    4000 6600
	1    0    0    -1  
$EndComp
Wire Wire Line
	4000 6450 4250 6450
Wire Wire Line
	4000 6750 4250 6750
Wire Wire Line
	4000 6750 3350 6750
Wire Wire Line
	3350 6750 3350 6700
Connection ~ 4000 6750
Wire Wire Line
	4000 6450 3350 6450
Wire Wire Line
	3350 6450 3350 6500
Connection ~ 4000 6450
$Comp
L pspice:DIODE D?
U 1 1 5EC255F5
P 1400 5550
F 0 "D?" H 1400 5815 50  0000 C CNN
F 1 "DIODE" H 1400 5724 50  0000 C CNN
F 2 "" H 1400 5550 50  0001 C CNN
F 3 "~" H 1400 5550 50  0001 C CNN
	1    1400 5550
	1    0    0    -1  
$EndComp
Wire Wire Line
	1600 5550 1750 5550
Connection ~ 1750 5550
Wire Wire Line
	1000 6100 1000 5550
Wire Wire Line
	1000 5550 1200 5550
Wire Wire Line
	1350 6500 1000 6500
Wire Wire Line
	1000 6500 1000 6100
Connection ~ 1000 6100
Wire Wire Line
	6600 1550 8950 1550
Wire Wire Line
	7600 2200 7600 2050
Wire Wire Line
	7500 2800 7500 2250
$Comp
L Device:R R?
U 1 1 5EC9BFF8
P 8350 4650
F 0 "R?" H 8420 4696 50  0000 L CNN
F 1 "500" H 8420 4605 50  0000 L CNN
F 2 "" V 8280 4650 50  0001 C CNN
F 3 "~" H 8350 4650 50  0001 C CNN
	1    8350 4650
	1    0    0    -1  
$EndComp
$Comp
L Device:R R?
U 1 1 5EC9D936
P 8350 5150
F 0 "R?" H 8420 5196 50  0000 L CNN
F 1 "1K" H 8420 5105 50  0000 L CNN
F 2 "" V 8280 5150 50  0001 C CNN
F 3 "~" H 8350 5150 50  0001 C CNN
	1    8350 5150
	1    0    0    -1  
$EndComp
Wire Wire Line
	8350 4800 8350 4900
$Comp
L power:GND #PWR?
U 1 1 5EC9EE01
P 8350 5500
F 0 "#PWR?" H 8350 5250 50  0001 C CNN
F 1 "GND" H 8355 5327 50  0000 C CNN
F 2 "" H 8350 5500 50  0001 C CNN
F 3 "" H 8350 5500 50  0001 C CNN
	1    8350 5500
	1    0    0    -1  
$EndComp
Wire Wire Line
	8350 5500 8350 5300
Wire Wire Line
	8350 4900 7300 4900
Wire Wire Line
	7300 4900 7300 3250
Wire Wire Line
	7300 3250 6600 3250
Connection ~ 8350 4900
Wire Wire Line
	8350 4900 8350 5000
Text Label 7500 4900 0    50   ~ 0
TX_Dynamixel
$Comp
L Device:R R?
U 1 1 5ECAE418
P 9050 4150
F 0 "R?" H 9120 4196 50  0000 L CNN
F 1 "1.7K" H 9120 4105 50  0000 L CNN
F 2 "" V 8980 4150 50  0001 C CNN
F 3 "~" H 9050 4150 50  0001 C CNN
	1    9050 4150
	1    0    0    -1  
$EndComp
$Comp
L Device:R R?
U 1 1 5ECAEAA2
P 9050 3700
F 0 "R?" H 9120 3746 50  0000 L CNN
F 1 "3.3K" H 9120 3655 50  0000 L CNN
F 2 "" V 8980 3700 50  0001 C CNN
F 3 "~" H 9050 3700 50  0001 C CNN
	1    9050 3700
	1    0    0    -1  
$EndComp
$Comp
L power:GND #PWR?
U 1 1 5ECAEFDB
P 9300 3300
F 0 "#PWR?" H 9300 3050 50  0001 C CNN
F 1 "GND" H 9305 3127 50  0000 C CNN
F 2 "" H 9300 3300 50  0001 C CNN
F 3 "" H 9300 3300 50  0001 C CNN
	1    9300 3300
	1    0    0    -1  
$EndComp
Wire Wire Line
	9300 3300 9050 3300
Wire Wire Line
	9050 3300 9050 3550
Wire Wire Line
	9050 3850 9050 3950
Wire Wire Line
	9050 3950 7400 3950
Wire Wire Line
	7400 3150 6600 3150
Connection ~ 9050 3950
Wire Wire Line
	9050 3950 9050 4000
Wire Wire Line
	7400 3950 7400 3150
Wire Wire Line
	8350 4500 9050 4500
Wire Wire Line
	9050 4300 9050 4500
Connection ~ 9050 4500
Wire Wire Line
	9050 4500 10300 4500
Text Label 7550 3950 0    50   ~ 0
RX_Dynamixel
$EndSCHEMATC
